%!PS-Adobe-3.0 EPSF-3.0
%%Creator: MATLAB, The MathWorks, Inc. Version 7.14.0.739 (R2012a). Operating System: Linux 3.13.0-39-generic #66-Ubuntu SMP Tue Oct 28 13:30:27 UTC 2014 x86_64.
%%Title: /home/nick/Documents/tmp/untitled.eps
%%CreationDate: 11/14/2014  09:34:35
%%DocumentNeededFonts: Helvetica
%%DocumentProcessColors: Cyan Magenta Yellow Black
%%LanguageLevel: 2
%%Pages: 1
%%BoundingBox:  -144    91   740   750
%%EndComments

%%BeginProlog
% MathWorks dictionary
/MathWorks 160 dict begin
% definition operators
/bdef {bind def} bind def
/ldef {load def} bind def
/xdef {exch def} bdef
/xstore {exch store} bdef
% operator abbreviations
/c  /clip ldef
/cc /concat ldef
/cp /closepath ldef
/gr /grestore ldef
/gs /gsave ldef
/mt /moveto ldef
/np /newpath ldef
/cm /currentmatrix ldef
/sm /setmatrix ldef
/rm /rmoveto ldef
/rl /rlineto ldef
/s {show newpath} bdef
/sc {setcmykcolor} bdef
/sr /setrgbcolor ldef
/sg /setgray ldef
/w /setlinewidth ldef
/j /setlinejoin ldef
/cap /setlinecap ldef
/rc {rectclip} bdef
/rf {rectfill} bdef
% page state control
/pgsv () def
/bpage {/pgsv save def} bdef
/epage {pgsv restore} bdef
/bplot /gsave ldef
/eplot {stroke grestore} bdef
% orientation switch
/portraitMode 0 def /landscapeMode 1 def /rotateMode 2 def
% coordinate system mappings
/dpi2point 0 def
% font control
/FontSize 0 def
/FMS {/FontSize xstore findfont [FontSize 0 0 FontSize neg 0 0]
  makefont setfont} bdef
/reencode {exch dup where {pop load} {pop StandardEncoding} ifelse
  exch dup 3 1 roll findfont dup length dict begin
  { 1 index /FID ne {def}{pop pop} ifelse } forall
  /Encoding exch def currentdict end definefont pop} bdef
/isroman {findfont /CharStrings get /Agrave known} bdef
/FMSR {3 1 roll 1 index dup isroman {reencode} {pop pop} ifelse
  exch FMS} bdef
/csm {1 dpi2point div -1 dpi2point div scale neg translate
 dup landscapeMode eq {pop -90 rotate}
  {rotateMode eq {90 rotate} if} ifelse} bdef
% line types: solid, dotted, dashed, dotdash
/SO { [] 0 setdash } bdef
/DO { [.5 dpi2point mul 4 dpi2point mul] 0 setdash } bdef
/DA { [6 dpi2point mul] 0 setdash } bdef
/DD { [.5 dpi2point mul 4 dpi2point mul 6 dpi2point mul 4
  dpi2point mul] 0 setdash } bdef
% macros for lines and objects
/L {lineto stroke} bdef
/MP {3 1 roll moveto 1 sub {rlineto} repeat} bdef
/AP {{rlineto} repeat} bdef
/PDlw -1 def
/W {/PDlw currentlinewidth def setlinewidth} def
/PP {closepath eofill} bdef
/DP {closepath stroke} bdef
/MR {4 -2 roll moveto dup  0 exch rlineto exch 0 rlineto
  neg 0 exch rlineto closepath} bdef
/FR {MR stroke} bdef
/PR {MR fill} bdef
/L1i {{currentfile picstr readhexstring pop} image} bdef
/tMatrix matrix def
/MakeOval {newpath tMatrix currentmatrix pop translate scale
0 0 1 0 360 arc tMatrix setmatrix} bdef
/FO {MakeOval stroke} bdef
/PO {MakeOval fill} bdef
/PD {currentlinewidth 2 div 0 360 arc fill
   PDlw -1 eq not {PDlw w /PDlw -1 def} if} def
/FA {newpath tMatrix currentmatrix pop translate scale
  0 0 1 5 -2 roll arc tMatrix setmatrix stroke} bdef
/PA {newpath tMatrix currentmatrix pop	translate 0 0 moveto scale
  0 0 1 5 -2 roll arc closepath tMatrix setmatrix fill} bdef
/FAn {newpath tMatrix currentmatrix pop translate scale
  0 0 1 5 -2 roll arcn tMatrix setmatrix stroke} bdef
/PAn {newpath tMatrix currentmatrix pop translate 0 0 moveto scale
  0 0 1 5 -2 roll arcn closepath tMatrix setmatrix fill} bdef
/vradius 0 def /hradius 0 def /lry 0 def
/lrx 0 def /uly 0 def /ulx 0 def /rad 0 def
/MRR {/vradius xdef /hradius xdef /lry xdef /lrx xdef /uly xdef
  /ulx xdef newpath tMatrix currentmatrix pop ulx hradius add uly
  vradius add translate hradius vradius scale 0 0 1 180 270 arc 
  tMatrix setmatrix lrx hradius sub uly vradius add translate
  hradius vradius scale 0 0 1 270 360 arc tMatrix setmatrix
  lrx hradius sub lry vradius sub translate hradius vradius scale
  0 0 1 0 90 arc tMatrix setmatrix ulx hradius add lry vradius sub
  translate hradius vradius scale 0 0 1 90 180 arc tMatrix setmatrix
  closepath} bdef
/FRR {MRR stroke } bdef
/PRR {MRR fill } bdef
/MlrRR {/lry xdef /lrx xdef /uly xdef /ulx xdef /rad lry uly sub 2 div def
  newpath tMatrix currentmatrix pop ulx rad add uly rad add translate
  rad rad scale 0 0 1 90 270 arc tMatrix setmatrix lrx rad sub lry rad
  sub translate rad rad scale 0 0 1 270 90 arc tMatrix setmatrix
  closepath} bdef
/FlrRR {MlrRR stroke } bdef
/PlrRR {MlrRR fill } bdef
/MtbRR {/lry xdef /lrx xdef /uly xdef /ulx xdef /rad lrx ulx sub 2 div def
  newpath tMatrix currentmatrix pop ulx rad add uly rad add translate
  rad rad scale 0 0 1 180 360 arc tMatrix setmatrix lrx rad sub lry rad
  sub translate rad rad scale 0 0 1 0 180 arc tMatrix setmatrix
  closepath} bdef
/FtbRR {MtbRR stroke } bdef
/PtbRR {MtbRR fill } bdef
/stri 6 array def /dtri 6 array def
/smat 6 array def /dmat 6 array def
/tmat1 6 array def /tmat2 6 array def /dif 3 array def
/asub {/ind2 exch def /ind1 exch def dup dup
  ind1 get exch ind2 get sub exch } bdef
/tri_to_matrix {
  2 0 asub 3 1 asub 4 0 asub 5 1 asub
  dup 0 get exch 1 get 7 -1 roll astore } bdef
/compute_transform {
  dmat dtri tri_to_matrix tmat1 invertmatrix 
  smat stri tri_to_matrix tmat2 concatmatrix } bdef
/ds {stri astore pop} bdef
/dt {dtri astore pop} bdef
/db {2 copy /cols xdef /rows xdef mul dup 3 mul string
  currentfile 
  3 index 0 eq {/ASCIIHexDecode filter}
  {/ASCII85Decode filter 3 index 2 eq {/RunLengthDecode filter} if }
  ifelse exch readstring pop
  dup 0 3 index getinterval /rbmap xdef
  dup 2 index dup getinterval /gbmap xdef
  1 index dup 2 mul exch getinterval /bbmap xdef pop pop}bdef
/it {gs np dtri aload pop moveto lineto lineto cp c
  cols rows 8 compute_transform 
  rbmap gbmap bbmap true 3 colorimage gr}bdef
/il {newpath moveto lineto stroke}bdef
currentdict end def
%%EndProlog

%%BeginSetup
MathWorks begin

0 cap

end
%%EndSetup

%%Page: 1 1
%%BeginPageSetup
%%PageBoundingBox:  -144    91   740   750
MathWorks begin
bpage
%%EndPageSetup

%%BeginObject: obj1
bplot

/dpi2point 12 def
portraitMode -1728 9000 csm

    0     0 10618  7904 rc
85 dict begin %Colortable dictionary
/c0 { 0.000000 0.000000 0.000000 sr} bdef
/c1 { 1.000000 1.000000 1.000000 sr} bdef
/c2 { 0.900000 0.000000 0.000000 sr} bdef
/c3 { 0.000000 0.820000 0.000000 sr} bdef
/c4 { 0.000000 0.000000 0.800000 sr} bdef
/c5 { 0.910000 0.820000 0.320000 sr} bdef
/c6 { 1.000000 0.260000 0.820000 sr} bdef
/c7 { 0.000000 0.820000 0.820000 sr} bdef
c0
1 j
1 sg
   0    0 10619 7905 rf
6 w
0 6442 8229 0 0 -6442 1380 7035 4 MP
PP
-8229 0 0 6442 8229 0 0 -6442 1380 7035 5 MP stroke
4 w
DO
SO
6 w
0 sg
1380 7035 mt 9609 7035 L
1380  593 mt 9609  593 L
1380 7035 mt 1380  593 L
9609 7035 mt 9609  593 L
1380 7035 mt 9609 7035 L
1380 7035 mt 1380  593 L
1380 7035 mt 1380 6993 L
1380  593 mt 1380  634 L
1380 7035 mt 1380 6952 L
1380  593 mt 1380  675 L
%%IncludeResource: font Helvetica
/Helvetica /ISOLatin1Encoding 120 FMSR

1292 7217 mt 
(10) s
%%IncludeResource: font Helvetica
/Helvetica /ISOLatin1Encoding 80 FMSR

1425 7143 mt 
(0) s
2618 7035 mt 2618 6993 L
2618  593 mt 2618  634 L
3343 7035 mt 3343 6993 L
3343  593 mt 3343  634 L
3857 7035 mt 3857 6993 L
3857  593 mt 3857  634 L
4255 7035 mt 4255 6993 L
4255  593 mt 4255  634 L
4581 7035 mt 4581 6993 L
4581  593 mt 4581  634 L
4857 7035 mt 4857 6993 L
4857  593 mt 4857  634 L
5095 7035 mt 5095 6993 L
5095  593 mt 5095  634 L
5306 7035 mt 5306 6993 L
5306  593 mt 5306  634 L
5494 7035 mt 5494 6993 L
5494  593 mt 5494  634 L
5494 7035 mt 5494 6952 L
5494  593 mt 5494  675 L
%%IncludeResource: font Helvetica
/Helvetica /ISOLatin1Encoding 120 FMSR

5406 7217 mt 
(10) s
%%IncludeResource: font Helvetica
/Helvetica /ISOLatin1Encoding 80 FMSR

5539 7143 mt 
(1) s
6733 7035 mt 6733 6993 L
6733  593 mt 6733  634 L
7457 7035 mt 7457 6993 L
7457  593 mt 7457  634 L
7971 7035 mt 7971 6993 L
7971  593 mt 7971  634 L
8370 7035 mt 8370 6993 L
8370  593 mt 8370  634 L
8696 7035 mt 8696 6993 L
8696  593 mt 8696  634 L
8971 7035 mt 8971 6993 L
8971  593 mt 8971  634 L
9210 7035 mt 9210 6993 L
9210  593 mt 9210  634 L
9420 7035 mt 9420 6993 L
9420  593 mt 9420  634 L
9609 7035 mt 9609 6993 L
9609  593 mt 9609  634 L
9609 7035 mt 9609 6952 L
9609  593 mt 9609  675 L
%%IncludeResource: font Helvetica
/Helvetica /ISOLatin1Encoding 120 FMSR

9521 7217 mt 
(10) s
%%IncludeResource: font Helvetica
/Helvetica /ISOLatin1Encoding 80 FMSR

9654 7143 mt 
(2) s
1380 7035 mt 1421 7035 L
9609 7035 mt 9567 7035 L
1380 7035 mt 1462 7035 L
9609 7035 mt 9526 7035 L
%%IncludeResource: font Helvetica
/Helvetica /ISOLatin1Encoding 120 FMSR

1168 7079 mt 
(10) s
%%IncludeResource: font Helvetica
/Helvetica /ISOLatin1Encoding 80 FMSR

1301 7005 mt 
(1) s
1380 6065 mt 1421 6065 L
9609 6065 mt 9567 6065 L
1380 5498 mt 1421 5498 L
9609 5498 mt 9567 5498 L
1380 5095 mt 1421 5095 L
9609 5095 mt 9567 5095 L
1380 4783 mt 1421 4783 L
9609 4783 mt 9567 4783 L
1380 4528 mt 1421 4528 L
9609 4528 mt 9567 4528 L
1380 4312 mt 1421 4312 L
9609 4312 mt 9567 4312 L
1380 4126 mt 1421 4126 L
9609 4126 mt 9567 4126 L
1380 3961 mt 1421 3961 L
9609 3961 mt 9567 3961 L
1380 3814 mt 1421 3814 L
9609 3814 mt 9567 3814 L
1380 3814 mt 1462 3814 L
9609 3814 mt 9526 3814 L
%%IncludeResource: font Helvetica
/Helvetica /ISOLatin1Encoding 120 FMSR

1168 3858 mt 
(10) s
%%IncludeResource: font Helvetica
/Helvetica /ISOLatin1Encoding 80 FMSR

1301 3784 mt 
(2) s
1380 2844 mt 1421 2844 L
9609 2844 mt 9567 2844 L
1380 2277 mt 1421 2277 L
9609 2277 mt 9567 2277 L
1380 1874 mt 1421 1874 L
9609 1874 mt 9567 1874 L
1380 1562 mt 1421 1562 L
9609 1562 mt 9567 1562 L
1380 1307 mt 1421 1307 L
9609 1307 mt 9567 1307 L
1380 1091 mt 1421 1091 L
9609 1091 mt 9567 1091 L
1380  905 mt 1421  905 L
9609  905 mt 9567  905 L
1380  740 mt 1421  740 L
9609  740 mt 9567  740 L
1380  593 mt 1421  593 L
9609  593 mt 9567  593 L
1380  593 mt 1462  593 L
9609  593 mt 9526  593 L
%%IncludeResource: font Helvetica
/Helvetica /ISOLatin1Encoding 120 FMSR

1168  637 mt 
(10) s
%%IncludeResource: font Helvetica
/Helvetica /ISOLatin1Encoding 80 FMSR

1301  563 mt 
(3) s
1380 7035 mt 9609 7035 L
1380  593 mt 9609  593 L
1380 7035 mt 1380  593 L
9609 7035 mt 9609  593 L
gs 1380 593 8230 6443 rc
/c8 { 0.000000 0.000000 1.000000 sr} bdef
c8
1238 0 1239 -456 1238 -1144 1239 66 1238 -359 1380 5162 6 MP stroke
/c9 { 0.000000 0.500000 0.000000 sr} bdef
c9
1238 0 1239 -670 1238 -331 1239 -574 1238 -361 1380 5215 6 MP stroke
/c10 { 1.000000 0.000000 0.000000 sr} bdef
c10
1238 0 1239 -383 1238 -414 1239 -515 1238 -526 1380 5369 6 MP stroke
/c11 { 0.000000 0.750000 0.750000 sr} bdef
c11
1238 0 1239 -286 1238 -335 1239 -940 1238 -101 1380 5377 6 MP stroke
/c12 { 0.750000 0.000000 0.750000 sr} bdef
c12
1238 -461 1239 -163 1238 -503 1239 -906 1238 -614 1380 6047 6 MP stroke
gr

c12

end %%Color Dict

eplot
%%EndObject

epage
end

showpage

%%Trailer
%%EOF
